Music:song,songs,mp4,download,k gane,gana,ganaa,k gaane,mp3,album,gane,ke gaane,ke gane,numbers,gaane,movie,albam,movies,film,playlist,playlists,hit,hits,superhits,superhit,albums:EntityTypeMeta
Podcast:podcasts,shows,show,podcast,Episodes,Episode:EntityTypeMeta
Stopword:and,play kare,from,play kar,play,play karen,search,by,all,top,top10,top20,top50,top 10,top 20,top 50,top 30,top30,popular,can i ask you to,can i ask you to play,can i hear,can i listen to,can you now play,can you play,can you play a song,can you play a song for me,can you play now,can you play that song,can you play the song,can you please play,can you please play the song,can you start,i want to listen,i want to listen to,i want to listen to the,i want to listen to the song,i want you to play,i want you to play the song,may i listen,may i listen to,may i listen to the song,may i listen to the song of,may i please listen to,may you play,may you play love,may you please play,now play,pease play the song,play,play a song,play a song for me,play that song,play the,play the song,please play,please play a song,please play a song for me,please play a song right now,please play the song,please start,lets play something,let s play something,lets play,let s play,miko play,of,the movie,lia,i,i am,in:StopwordMeta
New:trending,latest,naye,naya,current,fresh,recent,now:DurationMeta
Old:puraane,purane:DurationMeta