52562493###Playlist;Ustad Amjad Ali Khan,Amjad Ali Khan,Subhra Guha,Ustad Rashid Khan,Rashid Khan,Ronu Majumdar,Morning Raag,Morning Music,Ustad Bismillah Khan,Bismillah Khan,Ankita Joshi,Morning Inspiration,Calming Music,Inspiring Music,E.Mallikarjuna,Prativa,Ustad Bismillah Khan,Alokesh Chandra,Subhra Guha,Pt. Hariprasad Chaurasia,Pandit Hariprasad Chaurasia,Hariprasad Chaurasia,Pandit Himangshu Biswas Orchestra,Ustad Shahid Parvez,Ustad Zakir Hussain,Zakir Hussain,Ustad Amjad Ali Khan,Amjad Ali Khan,Ustad Rashid Khan,Pandit Vishwa Mohan Bhatt,Nirali Kartik,Pandit Vishwa Mohan Bhatt,Inspiring Music,Soulful Music,Classical Songs,Classical Hits,Classical Musician,Indian Classical,Classical,Classic Dance,Soft Instrumental,Hindi Classical,Classical Music Playlist,Taj Mahal,Taj Mahal Playlist,Zen Mode,Morning Meditation,Morning Zen,Raga Vibhas,Bilahari,Nat Bhairav,Karan Lage,Assamese Folk Tune,Varanasi My Soul,Teen Tal,Dhun Bhairavi,Raga Jogiya,Raag Todi Bandish,Awakening,Taj,Unwind with Taj,Taj Mahal Tea,Wah Taj,Raag,Morning Raga,Unwind,Raga;3;130
52562559###Playlist;Pandit Hariprasad Chaurasia,Pt. Hariprasad Chaurasia,Hariprasad Chaurasia,Wadali Brothers,Rekha Bhardwaj,Unwind,Relaxing Music,Bhimsen Joshi,Pt. Bhimsen Joshi,Pandit Bhimsen Joshi,Pt. Shivkumar,Pandit Shivkumar,Pt. Ravi Shankar,Pandit Ravi Shankar,Ravi Shankar,B.Sivaramakrishna Rao,Ustad Shahid Parvez,Ustad Zakir Hussain,Zakir Hussain,Alokesh Chandra,Rina Chandra,Ustad Ali Akbar Khan,Shashaa Tirupti,Talvin Singh,Rakesh Chaurasia,Anoushka Shankar,Suha Khan,Pandit Vishwa Mohan Bhatt,E.Mallikarjuna,Prativa,Pt. Shivkumar Sharma,Ronu Majumdar,Ustad Shujaat Hussain Khan,Taj Mahal Tea,Unwind with Taj,Wah Taj,Taj Playlist,Taj Mahal Playlist,Ghazals,Raga,Relaxation Music,Music to Relax,Relax Playlist,Classical Music,Classical Music Playlist,Soothing Music,Soulful Music,Taj,Taj Mahal,Ecstacy,Inner Joy,Raga Mishra Pahadi,Raga Kafi,Relaxation Raga Jait,Fathers,Relaxation Raag Mangal Bhairav,Asawari,Sunn Bhavara,Raga Malkuns,Raga Bhupal Todi,Raag Hansaddhwani,Relaxing Mood,Unwind,Raag,Raga,Relaxing Melodies;3;130
52562755###Playlist;Ulhas Bapat,Rakesh Chaurasia,Rupak Kulkarni,E.Mallikarjuna,Prativa,Prasad Padhye,Radhika Mane,Ronu Mazumdar,Rupak Kulkarni,Talvin Singh,Ustad Amjad Ali Khan,Amjad Ali Khan,Satish Sharma,Chirag Katti,Rupak Dhamankar,Crossby Fernandes,Crehyl Pereira,Pandit Brij Bhushan Kabra,Ustad Zakir Hussain,Zakir Hussain,Best of Classical Music,Indian Percussion,Indian Instrumental,Classical Instrumental,Instrumental Songs,Instrumental Playlist,Classical Music,Popular Classical Music,Carnatic Music,Taj Mahal,Taj Mahal Playlist,Classical Music Instrumental,Instrumental Music,Focus Music,Hindi Instrumental,Instrumental Raga,Unwind with Taj,Taj,Wah Taj,Raga Ahir Bhairav,Raga Gaud Malhar,Raga Gunkeli,Raga Kedar,Raga Bageshri,Khamaj,Bilahari,Raga Kinwani,Inner Vibes,Feelings,Love in Summer,Raga Miyan ki Todi,Meeting,Unwind,Raag,Raga,Focus Instrumental;3;130
52562686###Playlist;Papon,Rahat Fateh Ali Khan,Mohit Chauhan,Shreya Ghoshal,Raag,Bollywood Classical,Kailash Kher,Shubha Mudgal,Hariharan,Alka Yagnik,Asha Bhosle,Raag Bhairavi,Raag Malhar,Shail Hada,Rakesh Pandit,Momina Mustehsan,Mujtaba Aziz naza,Shadab Faridi,Altamash Faridi,Farhan Sabri,Javed Bashir,Ayushmann Khurrana,Mohammed Aslam,A R Rahman,Madhushree,Udit Narayan,Vaishali Samant,Lata Mangeshkar,M G Sreekumar,Sonu Nigam,Taj Mahal Playlist,Romantic Songs,Romance Playlist,Romance,Bollywood,Romantic Classical Music,Classical Romantic Songs,Bollywood Classical Songs,Classical Bollywood,Unwind with Taj,Taj ,Wah Taj,Taj Mahal,Unwind,Bollywood Romance Raga,Raga;3;140
52562613###Playlist;Coke Studio,Bandish Bandits,Javed Ali,Anoushka Shankar,Ghazals,Pankaj Udhas,Sona Mohapatra,Siddharth Slathia,Sanam Marvi,Saieen Zahoor,Vishal Dadlani,Neeraj Arya ,Shalmali ,Mame Khan,Parth Bharat Thakkar,Purbayan Chatterjee,Nyzel Dlima,Darshan Doshi,Dhruv Ghanekar,Rekha Bhardwaj,Kirtidan Gadhvi,Taniskaa Sanghvi,Harshdeep Kaur,Devender Singh,Roop Kumar Rathod,Abhijit Pohankar,Nirali Kartik,Sreeram,Vasuda Sharma,Nooran Sisters,Mohan Kannan,Swanand Kirkire,Sniti Mishra,Ankita Joshi,Maati Baani,Karsh Kale,Prem Joshua,Fusion Music,Fusion ,Fusion Songs,Fusion Playlist,Indian Fusion,Taj Mahal,Taj Mahal Playlist,Unwind with Taj,Taj ,Wah Taj,Lat Ulajhi,Albela Sajan,Laadki,Mora Saiyaan,Nirmohiya,Fakiri,Hungama Hai Kyun,Jugaadbandi,Jaagi Jaagi Raina,Chrraiyaa,Hori Hori,Boondan Boondan,Tore Matware Naina,Lounge Music,Unwind,Raga Fusion Lounge;3;130
53169105###Playlist;-;-;155.5
2881836###Playlist;Holi,Holi Songs,Holi Songs,Holi Retro,Holi Old Songs,Holi Retro Bollywood,Old Bollywood Holi Songs,Old Holi Songs,Bollywood Holi Songs,Cinema Holi,Holi DJ Songs,DJ Holi Songs,DJ Songs Holi;-;-
1219902###Playlist;Holi,Holi Songs,Kanha Holi Songs,Krishna Holi Songs,Radha Krishna Holi,Gopi Sang Holi,Shyaam Holi,Brij Ki Holi,Shri Krishna Holi;-;-
10272639###Playlist;Holi,Holi Songs,Holika,Holika Dahan,Holi Puja,Holi Pooja,Holi Bhajan,Holi Aarti,Holi Prayer;-;-
17742262###Playlist;Holi,Holi Songs,Punjabi Holi,Famous Punjabi Holi ,Holi Party Songs,Holi Dance Songs,Holi DJ Songs,DJ Holi Songs,Punjabi Holi Songs,Holi Punjabi Dance Songs,Punjabi DJ Holi Songs;-;-
53228241###Playlist;Holi,Holi Songs,Punjabi Holi,Famous Punjabi Holi ,Holi Party Songs,Holi Dance Songs,Holi DJ Songs,DJ Holi Songs,Punjabi Holi Songs,Holi Punjabi Dance Songs,Punjabi DJ Holi Songs;-;-
1219904###Playlist;Holi,Holi Songs,Bhojpuri Holi,Bhojpuri Indipop Holi,Holi Party Bhojpuri,Holi Dance Bhojpuri,Holi DJ Bhojpuri,DJ Holi Bhojpuri,Bhojpuri Holi Songs,Holi Bhojpuri Dance Songs,Bhojpuri DJ Holi Songs,Bihari Holi Songs,Bihari Holi DJ Songs,Bihari Holi Party Songs;-;-
53128442###Playlist;Holi,Holi Songs,Bhojpuri Holi,Bhojpuri Holi Indipop,Top Bhojpuri Holi,Holi Bhojpuri Hit songs,Bhojpuri Holi top songs,Top Bhojpuri DJ Holi,DJ Holi Bhojpuri Top Songs,Top Holi Bihari,Top Bihari Holi,Bihari Top DJ Holi,Top Bihari Holi,Bihari Holi Party Top;-;-
17796305###Playlist;Holi,Holi Songs,Khesari Lal Holi ,Khesari Lal Holi Songs,Khesari Lal Top Holi,Kesari Lal Holi,Kesari Lal Top Holi,Holi Hits Khesari Lal,Holi Hits Kesari Lal,Top Holi Khesari Lal,Top Holi Kesari Lal,Best Khesari Lal Holi Songs,Best Kesari Lal Holi Songs,Kesari Lal Holi Playlist;-;-
17796237###Playlist;Holi,Holi Songs,Pawan Singh Holi ,Pawan Singh Holi Songs,Pawan Singh Top Holi,Pavan Singh Holi,Pavan Singh Top Holi,Holi Hits Pawan Singh,Holi Hits Pavan Singh,Top Holi Pawan Singh,Top Holi Pavan Singh,Best Pawan Singh Holi Songs,Best Pavan Singh Holi Songs,Pawan Singh Holi Playlist;-;-
42566080###Playlist;Holi,Holi Songs,Ritesh Pandey Holi ,Ritesh Pandey Holi Songs,Ritesh Pandey Top Holi,Ritesh Panday Holi,Ritesh Panday Top Holi,Holi Hits Ritesh Pandey,Holi Hits Ritesh Panday,Top Holi Ritesh Pandey,Top Holi Ritesh Panday,Best Ritesh Pandey Holi Songs,Best Ritesh Panday Holi Songs,Ritesh Pandey Holi Playlist;-;-
53100296###Playlist;Holi,Holi Songs,Antra Singh Holi ,Antra Singh Holi Songs,Antra Singh Top Holi,Antara Singh Holi,Antara Singh Top Holi,Holi Hits Antra Singh,Holi Hits Antara Singh,Top Holi Antra Singh,Top Holi Antara Singh,Best Antra Singh Holi Songs,Antara Singh Holi Hits,Antara Singh Holi Hits;-;-
52836234###Playlist;Holi,Holi Songs,Samar Singh Holi ,Samar Singh Holi Songs,Samar Singh Holi Hits,Holi Songs Samar Singh,Holi Samar Singh Hits,Top Holi Samar Singh,Samar Singh Top Holi;-;-
17796048###Playlist;Holi,Holi Songs,Anu Dubey Holi ,Anu Dubey Holi Songs,Anu Dubey Top Holi,Anu Dube Holi,Anu Dube Top Holi,Holi Hits Anu Dubey,Holi Hits Anu Dube,Top Holi Anu Dubey,Top Holi Anu Dube,Best Anu Dubey Holi Songs,Best Anu Dube Holi Songs,Anu Dubey Holi Playlist;-;-
53115192###Playlist;Holi,Holi Songs,Ankush Raja Holi ,Ankush Raja Holi Songs,Ankush Raja Top Holi,Ankush Raj Holi,Ankush Raj Top Holi,Holi Hits Ankush Raja,Holi Hits Ankush Raj,Top Holi Ankush Raja,Top Holi Ankush Raj,Best Ankush Raja Holi Songs,Best Ankush Raj Holi Songs,Ankush Raja Holi Playlist;-;-
17796150###Playlist;Holi,Holi Songs,Arvind Akela Holi ,Arvind Akela Holi Songs,Arvind Akela Top Holi,Aravind Akela Holi,Aravind Akela Top Holi,Holi Hits Arvind Akela,Holi Hits Aravind Akela,Top Holi Arvind Akela,Top Holi Aravind Akela,Best Arvind Akela Holi Songs,Best Aravind Akela Holi Songs,Aravind Akela Holi Playlist;-;-
42566303###Playlist;Holi,Holi Songs,Pramod Premi Holi ,Pramod Premi Holi Songs,Pramod Premi Top Holi,Promod Premi Holi,Promod Premi Top Holi,Holi Hits Pramod Premi,Holi Hits Promod Premi,Top Holi Pramod Premi,Top Holi Promod Premi,Best Pramod Premi Holi Songs,Best Promod Premi Holi Songs,Promod Premi Holi Playlist;-;-
53124583###Playlist;Holi,Holi Songs,Gunjan Holi ,Gunjan Holi Songs,Gunjan Top Holi,Gunjan Singh Holi,Gunjan Singh Top Holi,Holi Hits Gunjan,Holi Hits Gunjan Singh,Top Holi Gunjan,Top Holi Gunjan Singh,Best Gunjan Holi Songs,Best Gunjan Singh Holi Songs,Gunjan Singh Holi Playlist;-;-
53110523###Playlist;Holi,Holi Songs,Nirahua Holi ,Nirahua Holi song,Nirahua Holi hits,Bhojpuri Cinema Holi Songs,Cinema Holi,Dinesh Lal holi hits;-;-
53128019###Playlist;Holi,Holi Songs,Indu Holi ,Indu Holi Songs,Indu Top Holi,Indu Sonali Holi,Indu Sonali Top Holi,Holi Hits Indu,Holi Hits Indu Sonali,Top Holi Indu,Top Holi Indu Sonali,Best Indu Holi Songs,Best Indu Sonali Holi Songs,Indu Sonali Holi Playlist;-;-
53127129###Playlist;Holi,Holi Songs,Priyanka Holi ,Priyanka Holi Songs,Priyanka Top Holi,Priyanka Singh Holi,Priyanka Singh Top Holi,Holi Hits Priyanka,Holi Hits Priyanka Singh,Top Holi Priyanka,Top Holi Priyanka Singh,Best Priyanka Holi Songs,Best Priyanka Singh Holi Songs,Priyanka Singh Holi Playlist;-;-
53515982###Playlist;Holi,Holi Songs,Bhojpuri Holi,Bhojpuri Bhakti Geet,holi Bhojpuri Bhakti Geet,Holi Bhakti Geet,Khelat Raghuvir holi songs,Khelat Raghuvir songs,Raghuvir Khelat holi songs,Raghuvir holi songs,Holi Khelat Raghuvir songs;-;-
5791615###Playlist;Holi,Holi Songs,Haryanvi Holi,Haryanavi Holi songs,Desi Holi songs,Haryanvi Holi Songs,Haryanavi Holi Hits,Haryanvi Holi Hits,Top Haryanvi Holi,Top Haryanavi Holi,DJ Haryanvi Holi,Haryanvi DJ Holi;-;-
42587290###Playlist;Holi,Holi Songs,Haryanvi Holi,Haryanavi Holi songs,Desi Holi songs,Jatt Holi songs,Desi Haryanvi Holi,Haryanvi Desi Holi,Desi Haryanavi Holi,Haryanavi Desi Holi,Jatt Di Holi,Jat Holi Songs;-;-
5792135###Playlist;Holi,Holi Songs,Rajasthani Holi,Indipop Holi,Holi Indipop,Rajasthani Indipop holi songs,Holi Indipop Rajasthani,Rajasthani holi songs,Rajasthani Holi Hits,Top Rajasthani Holi;-;-
30628480###Playlist;Holi,Holi Songs,Rajasthani Holi,Folk Holi,Rajasthani Folk Holi,Rajasthani holi songs,Fagan Geet,rajasthani Fagan Geet,Fagan Holi Songs,Folk Holi Songs,Rajasthani Holi Folk ;-;-
30649330###Playlist;Holi,Holi Songs,Rajasthani Holi,Rajasthani Holi DJ Songs,DJ Songs holi,Rajasthani holi dance songs,holi dance Rajasthani,Rajasthani top holi songs,top holi rajasthani,Rajasthani Holi Dance;-;-
60776557###Playlist;Jersey,Jersey Song,jersey songs,Jersey all song,jersey all songs;-;130
61142857###Playlist;kalank;-;-
61142570###Playlist;namo namo,Kedarnath, Qaafirana;-;-
1219896###Playlist;Holi;-;300
2881836###Playlist;Holi;-;300
1219902###Playlist;Holi;-;300
10272639###Playlist;Holi;-;300
17742262###Playlist;Holi;-;300
53228241###Playlist;Holi;-;300
5791615###Playlist;Holi;-;300
5792135###Playlist;Holi;-;300
30628480###Playlist;Holi;-;300
