you will,you'll
you have,you've
you had,you'd
you are,you're
would not,wouldn't
would have,would've
will not,won't
why is,why's
why did,why'd
why are,why're
who will,who'll
who have,who've
who has,who's
who is,who's
who does,who's
who are,who're
which has,which's
which is,which's
where have,where've
where has,where's
where is,where's
where does,where's
where did,where'd
where are,where're
when has,when's
when is,when's
what will,what'll
what have,what've
what has,what's
what is,what's
what does,what's
what did,what'd
what are,what're
what were,what're
were not,weren't
we have,we've
was not,wasn't
those are,those're
this has,this's
this is,this's
they will,they'll
they have,they've
they had,they'd
they would,they'd
these are,these're
there has,there's
there is,there's
there had,there'd
there would,there'd
that would,that'd
that had,that'd
that will,that'll
that has,that's
that is,that's
something has,something's
something is,something's
someone has,someone's
someone is,someone's
somebody has,somebody's
somebody is,somebody's
should not have,shouldn't've
should not,shouldn't
should have,should've
she has,she's
she would,she'd
shall not,shalln't
ought not,oughtn't
old,ol'
of the clock,o'clock
need not,needn't
must not have,mustn't've
must not,mustn't
must have,must've
might not,mightn't
might have,might've
may not,mayn't
madam,ma'am
let us,let's
it would,it'd
it was,twas
it will,it'll
it has,it's
it is,it's
is not,isn't
I have,I've
I had,I'd
I would,I'd
I am,I'm
how will,how'll
how has,how's
how is,how's
how does,how's
how did,how'd
how would,how'd
how are,how're
he is,he's
have not,haven't
has not,hasn't
had not,hadn't
got to,gotta
going to,gonna
given,giv'n
give me,gimme
everyone is,everyone's
ever,e'er
does not,doesn't
do not,don't
does not,don't
did not,didn't
dare not,daren't
dared not,daren't
dare not,daresn't
dare not,dasn't
could not have,couldn't've
could not,couldn't
could have,could've
cannot,can't
because,b'cz
are not,aren't
am not,ain't
of the clock,o'clock
madam,ma'am
want to,Wanna
would not,Wudn't
Wouldn't,Wudn't
could not,Cudn't
couldn't,Cudn't
couldn't,cud nt
could not,cud nt
should not,Shudn't
shouldn't,Shudn't
have not,hvn't
haven't,hvn't
are not,are nt
aren't,are nt
would have,Wud've
